Taller 7. Visualización de Comunidades - Curvas Whitaker
…
# Eje x: Rango de las especies para cada periodo
# se inserta una columna "rango" que ranquea a las abundancias de c/spp
datos1$rango <- ave(datos1$Abundancia, datos1$Tramos, FUN = rank, ties.method = "min")

# Eje y: Abundancia relativa de las especies para cada periodo (log10)
# se inserta una columna "abundancia_rel" 
datos1$abundancia_rel <- datos1$Abundancia / sum(datos1$Abundancia)

# Filtrado de los datos de manera descendente por cada rango de abundancia
datos1 <- datos1[order(datos1$rango, decreasing = TRUE), ]
datos1

# A tibble: 321 × 5
   Taxones         Tramos Abundancia rango abundancia_rel
   <chr>           <chr>       <int> <dbl>          <dbl>
 1 "Chironominae " B             451   107         0.0404
 2 "Chironominae " C             756   107         0.0677
 3 "Simulium"      A            1586   107         0.142 
 4 "Chironominae " A             901   106         0.0807
 5 "Leptohyphes"   C             349   106         0.0313
 6 "Staphylinidae" B             347   106         0.0311
 7 "Orthocladinae" A             473   105         0.0424
 8 "Simulium"      B             323   105         0.0289
 9 "Tricorythodes" C             302   105         0.0270
10 "Baetodes"      A             346   104         0.0310
# ℹ 311 more rows
…
